<svg xmlns="http://www.w3.org/2000/svg" width="36" height="36" viewBox="0 0 36 36" fill="none">
<g clip-path="url(#clip0_11034_25111)">
<path d="M35.6832 7.15234L24.7651 18.0001L35.6832 28.8478C35.8806 28.4353 36.0003 27.9793 36.0003 27.4923V8.5079C36.0003 8.02084 35.8806 7.56487 35.6832 7.15234Z" fill="#3C93F0"/>
<path d="M32.8355 5.34375H3.16366C2.67661 5.34375 2.22063 5.46349 1.80811 5.66086L15.7625 19.545C16.9964 20.7789 19.0028 20.7789 20.2367 19.545L34.1911 5.66086C33.7786 5.46349 33.3226 5.34375 32.8355 5.34375Z" fill="#3C93F0"/>
<path d="M0.317109 7.15234C0.119742 7.56487 0 8.02084 0 8.5079V27.4923C0 27.9793 0.119742 28.4354 0.317109 28.8478L11.2352 18.0001L0.317109 7.15234Z" fill="#3C93F0"/>
<path d="M23.273 19.4917L21.7281 21.0367C19.6722 23.0925 16.3269 23.0925 14.2711 21.0367L12.7262 19.4917L1.80811 30.3394C2.22063 30.5368 2.67661 30.6565 3.16366 30.6565H32.8355C33.3226 30.6565 33.7786 30.5368 34.1911 30.3394L23.273 19.4917Z" fill="#3C93F0"/>
</g>
<defs>
<clipPath id="clip0_11034_25111">
<rect width="36" height="36" fill="white"/>
</clipPath>
</defs>
</svg>